C:\Users\Tufi\eclipse-workspace\Client-Vlad\src\main\java\model\Writer.java
C:\Users\Tufi\eclipse-workspace\Client-Vlad\src\main\java\model\Article.java
C:\Users\Tufi\eclipse-workspace\Client-Vlad\src\main\java\startClient\StartClient.java
C:\Users\Tufi\eclipse-workspace\Client-Vlad\src\main\java\clientGUI\ArticoleReader.java
C:\Users\Tufi\eclipse-workspace\Client-Vlad\src\main\java\clientGUI\WritterGUI.java
C:\Users\Tufi\eclipse-workspace\Client-Vlad\src\main\java\clientGUI\GUI.java
